{
    "m_Name": "Settings",
    "m_Path": "ProjectSettings/Packages/com.unity.polybrush/Settings.json",
    "m_Dictionary": {
        "m_DictionaryValues": [
            {
                "type": "System.Boolean, mscorlib, Version=4.0.0.0, Culture=neutral, PublicKeyToken=b77a5c561934e089",
                "key": "Editor.FloatingWindow",
                "value": "{\"m_Value\":false}"
            },
            {
                "type": "System.Boolean, mscorlib, Version=4.0.0.0, Culture=neutral, PublicKeyToken=b77a5c561934e089",
                "key": "RaiseLowerBrush.IgnoreOpenEdges",
                "value": "{\"m_Value\":true}"
            },
            {
                "type": "System.Boolean, mscorlib, Version=4.0.0.0, Culture=neutral, PublicKeyToken=b77a5c561934e089",
                "key": "RaiseLowerBrush.StickToFirstAppliedDirection",
                "value": "{\"m_Value\":true}"
            },
            {
                "type": "System.Boolean, mscorlib, Version=4.0.0.0, Culture=neutral, PublicKeyToken=b77a5c561934e089",
                "key": "Brush.IgnoreUnselected",
                "value": "{\"m_Value\":true}"
            },
            {
                "type": "System.Boolean, mscorlib, Version=4.0.0.0, Culture=neutral, PublicKeyToken=b77a5c561934e089",
                "key": "Mesh.UseAdditionalVertexStream",
                "value": "{\"m_Value\":false}"
            },
            {
                "type": "System.Boolean, mscorlib, Version=4.0.0.0, Culture=neutral, PublicKeyToken=b77a5c561934e089",
                "key": "Brush.HideWireframe",
                "value": "{\"m_Value\":true}"
            },
            {
                "type": "System.Boolean, mscorlib, Version=4.0.0.0, Culture=neutral, PublicKeyToken=b77a5c561934e089",
                "key": "Mesh.RebuildNormals",
                "value": "{\"m_Value\":true}"
            },
            {
                "type": "System.Boolean, mscorlib, Version=4.0.0.0, Culture=neutral, PublicKeyToken=b77a5c561934e089",
                "key": "Mesh.RebuildColliders",
                "value": "{\"m_Value\":true}"
            },
            {
                "type": "System.Boolean, mscorlib, Version=4.0.0.0, Culture=neutral, PublicKeyToken=b77a5c561934e089",
                "key": "Brush.LockBrushToFirstObject",
                "value": "{\"m_Value\":true}"
            },
            {
                "type": "UnityEngine.Polybrush.BrushMirror, Unity.Polybrush, Version=0.0.0.0, Culture=neutral, PublicKeyToken=null",
                "key": "Brush.MirrorAxis",
                "value": "{\"m_Value\":0}"
            },
            {
                "type": "UnityEngine.Polybrush.MirrorCoordinateSpace, Unity.Polybrush, Version=0.0.0.0, Culture=neutral, PublicKeyToken=null",
                "key": "Brush.MirrorSpace",
                "value": "{\"m_Value\":0}"
            },
            {
                "type": "UnityEngine.Polybrush.PolyDirection, Unity.Polybrush, Version=0.0.0.0, Culture=neutral, PublicKeyToken=null",
                "key": "RaiseLowerBrush.Direction",
                "value": "{\"m_Value\":0}"
            },
            {
                "type": "System.Single, mscorlib, Version=4.0.0.0, Culture=neutral, PublicKeyToken=b77a5c561934e089",
                "key": "RaiseLowerBrush.Strength",
                "value": "{\"m_Value\":5.0}"
            },
            {
                "type": "System.Single, mscorlib, Version=4.0.0.0, Culture=neutral, PublicKeyToken=b77a5c561934e089",
                "key": "Brush.VertexBillboardSize",
                "value": "{\"m_Value\":2.0}"
            },
            {
                "type": "UnityEngine.Color, UnityEngine.CoreModule, Version=0.0.0.0, Culture=neutral, PublicKeyToken=null",
                "key": "Brush.BrushColor",
                "value": "{\"m_Value\":{\"r\":0.0,\"g\":0.800000011920929,\"b\":1.0,\"a\":1.0}}"
            },
            {
                "type": "UnityEngine.Gradient, UnityEngine.CoreModule, Version=0.0.0.0, Culture=neutral, PublicKeyToken=null",
                "key": "Brush.BrushColorGradient",
                "value": "{\"m_Value\":{\"serializedVersion\":\"2\",\"key0\":{\"r\":1.0,\"g\":1.0,\"b\":1.0,\"a\":1.0},\"key1\":{\"r\":1.0,\"g\":1.0,\"b\":1.0,\"a\":1.0},\"key2\":{\"r\":0.0,\"g\":0.0,\"b\":0.0,\"a\":0.0},\"key3\":{\"r\":0.0,\"g\":0.0,\"b\":0.0,\"a\":0.0},\"key4\":{\"r\":0.0,\"g\":0.0,\"b\":0.0,\"a\":0.0},\"key5\":{\"r\":0.0,\"g\":0.0,\"b\":0.0,\"a\":0.0},\"key6\":{\"r\":0.0,\"g\":0.0,\"b\":0.0,\"a\":0.0},\"key7\":{\"r\":0.0,\"g\":0.0,\"b\":0.0,\"a\":0.0},\"ctime0\":0,\"ctime1\":65535,\"ctime2\":0,\"ctime3\":0,\"ctime4\":0,\"ctime5\":0,\"ctime6\":0,\"ctime7\":0,\"atime0\":0,\"atime1\":65535,\"atime2\":0,\"atime3\":0,\"atime4\":0,\"atime5\":0,\"atime6\":0,\"atime7\":0,\"m_Mode\":0,\"m_NumColorKeys\":2,\"m_NumAlphaKeys\":2}}"
            },
            {
                "type": "System.Int32, mscorlib, Version=4.0.0.0, Culture=neutral, PublicKeyToken=b77a5c561934e089",
                "key": "GI.WorkflowMode",
                "value": "{\"m_Value\":1}"
            }
        ]
    }
}